{
    "articles":  [
                     {
                         "id":  "02f3a199-c851-480c-84d6-acdc6b9189de",
                         "title":  "测试",
                         "summary":  "测试11111111111111111111",
                         "category":  "笔记",
                         "tags":  "",
                         "cover_url":  "",
                         "views":  1,
                         "likes":  0,
                         "is_pinned":  0,
                         "created_at":  "2026-07-18 12:35:20"
                     },
                     {
                         "id":  "56514faa-6092-4d3b-a1be-09d7596206a2",
                         "title":  "Vue 3 入门指南：从零搭建前端项目",
                         "summary":  "详细介绍如何使用 Vite 创建 Vue 3 项目，理解组合式 API 的核心概念，以及组件化开发的最佳实践。",
                         "category":  "技术",
                         "tags":  "Vue,前端,JavaScript",
                         "cover_url":  "/covers/A_modern_web_development_works_2026-07-12T04-23-11.png",
                         "views":  4,
                         "likes":  0,
                         "is_pinned":  0,
                         "created_at":  "2026-07-12 22:37:27"
                     },
                     {
                         "id":  "49c69671-300f-4526-abe0-ed58dd5d1247",
                         "title":  "Node.js + Express 后端开发实战",
                         "summary":  "手把手教你用 Express 框架搭建 RESTful API，连接数据库，实现完整的增删改查功能。",
                         "category":  "技术",
                         "tags":  "Node.js,Express,后端",
                         "cover_url":  "/covers/Node_js_and_Express_server_arc_2026-07-12T04-23-41.png",
                         "views":  1,
                         "likes":  0,
                         "is_pinned":  0,
                         "created_at":  "2026-07-12 22:37:27"
                     },
                     {
                         "id":  "71c90a7b-4cde-45b3-8477-b7fc25723019",
                         "title":  "SQLite 数据库入门：轻量级数据存储方案",
                         "summary":  "了解 SQLite 的特点和基本用法，学习如何在 Node.js 项目中集成 SQLite 实现数据持久化。",
                         "category":  "技术",
                         "tags":  "SQLite,数据库,Node.js",
                         "cover_url":  "/covers/SQLite_database_concept__a_sma_2026-07-12T04-24-07.png",
                         "views":  0,
                         "likes":  0,
                         "is_pinned":  0,
                         "created_at":  "2026-07-12 22:37:27"
                     },
                     {
                         "id":  "8417cb39-e74c-4949-8146-88e995053612",
                         "title":  "前后端分离架构详解",
                         "summary":  "深入理解前后端分离的设计思想，了解如何通过 API 接口实现前端和后端的协作开发。",
                         "category":  "技术",
                         "tags":  "架构,前后端分离,API",
                         "cover_url":  "/covers/Frontend_and_backend_separatio_2026-07-12T04-24-33.png",
                         "views":  0,
                         "likes":  0,
                         "is_pinned":  0,
                         "created_at":  "2026-07-12 22:37:27"
                     },
                     {
                         "id":  "95522da9-5eee-4d66-af74-ebd4c3285f9c",
                         "title":  "Git 版本控制从入门到熟练",
                         "summary":  "掌握 Git 的基本操作和常用命令，学会使用 GitHub 管理代码，了解团队协作的 Git 工作流。",
                         "category":  "工具",
                         "tags":  "Git,GitHub,版本控制",
                         "cover_url":  "/covers/Git_branching_visualization__a_2026-07-12T04-30-14.png",
                         "views":  0,
                         "likes":  0,
                         "is_pinned":  0,
                         "created_at":  "2026-07-12 22:37:27"
                     }
                 ],
    "total":  11,
    "page":  1,
    "pageSize":  6,
    "totalPages":  2
}
